    <svg width="20" height="20" viewBox="0 0 20 20" fill="none" xmlns="http://www.w3.org/2000/svg">
    <path d="M10 1.66666L12.575 6.88332L18.3334 7.72499L14.1667 11.7833L15.15 17.5167L10 14.8083L4.85002 17.5167L5.83335 11.7833L1.66669 7.72499L7.42502 6.88332L10 1.66666Z" stroke="currentColor" stroke-width="1.5" stroke-linecap="round" stroke-linejoin="round"/>
    </svg>
