    <svg width="20" height="20" viewBox="0 0 20 20" fill="none" xmlns="http://www.w3.org/2000/svg">
    <path d="M5.83332 18.3333H3.33332C2.8913 18.3333 2.46737 18.1577 2.15481 17.8452C1.84225 17.5326 1.66666 17.1087 1.66666 16.6667V10.8333C1.66666 10.3913 1.84225 9.96737 2.15481 9.65481C2.46737 9.34225 2.8913 9.16666 3.33332 9.16666H5.83332M11.6667 7.49999V4.16666C11.6667 3.50362 11.4033 2.86773 10.9344 2.39889C10.4656 1.93005 9.8297 1.66666 9.16666 1.66666L5.83332 9.16666V18.3333H15.2333C15.6353 18.3379 16.0253 18.197 16.3316 17.9367C16.6379 17.6763 16.8397 17.3141 16.9 16.9167L18.05 9.41666C18.0862 9.17779 18.0701 8.93389 18.0028 8.70187C17.9354 8.46984 17.8184 8.25524 17.6599 8.07292C17.5013 7.8906 17.3051 7.74493 17.0846 7.646C16.8642 7.54708 16.6249 7.49725 16.3833 7.49999H11.6667Z" stroke="currentColor" stroke-width="1.5" stroke-linecap="round" stroke-linejoin="round"/>
    </svg>
