<svg width="479" height="80" viewBox="0 0 479 80"
     fill="none" xmlns="http://www.w3.org/2000/svg">
<path d="M114 59.5166C114 61.2984 89.3757 57.5809 59 57.5809C28.6243 57.5809 4 61.2984 4 59.5166C4 57.7349 28.6243 55 59 55C89.3757 55 114 57.7349 114 59.5166Z" fill="#FFDA2D"/>
<path d="M25.4019 23.1C26.0219 23.22 26.4819 23.43 26.7819 23.73C27.1019 24.03 27.2619 24.38 27.2619 24.78C27.2619 25.44 27.0719 25.92 26.6919 26.22C26.3319 26.52 25.7519 26.64 24.9519 26.58C23.1519 26.44 21.7419 26.35 20.7219 26.31C19.7219 26.25 18.4019 26.21 16.7619 26.19C16.0219 29.87 15.3419 33.57 14.7219 37.29C14.5019 38.65 14.2719 40.23 14.0319 42.03C13.7919 43.81 13.6319 45.25 13.5519 46.35C13.5119 46.93 13.2719 47.38 12.8319 47.7C12.3919 48 11.8619 48.15 11.2419 48.15C10.5819 48.15 10.0719 47.99 9.71188 47.67C9.35188 47.35 9.17188 46.93 9.17188 46.41C9.17188 45.93 9.24188 45.14 9.38188 44.04C9.54188 42.92 9.72188 41.75 9.92188 40.53C10.1419 39.31 10.3119 38.25 10.4319 37.35C10.6519 35.83 10.9019 34.32 11.1819 32.82C11.4619 31.32 11.7419 29.9 12.0219 28.56C12.0819 28.26 12.1519 27.92 12.2319 27.54C12.3119 27.14 12.4019 26.7 12.5019 26.22C10.5419 26.28 9.00188 26.44 7.88187 26.7C6.76188 26.96 5.96188 27.33 5.48188 27.81C5.02188 28.27 4.79188 28.87 4.79188 29.61C4.79188 30.29 4.99188 30.94 5.39188 31.56C5.47188 31.7 5.51188 31.85 5.51188 32.01C5.51188 32.39 5.28188 32.75 4.82188 33.09C4.38188 33.41 3.92188 33.57 3.44188 33.57C3.10188 33.57 2.82188 33.47 2.60188 33.27C2.20188 32.93 1.87188 32.45 1.61188 31.83C1.35188 31.19 1.22188 30.47 1.22188 29.67C1.22188 27.97 1.77188 26.61 2.87188 25.59C3.99188 24.55 5.68188 23.79 7.94188 23.31C10.2219 22.83 13.1419 22.59 16.7019 22.59C18.9019 22.59 20.6519 22.63 21.9519 22.71C23.2719 22.79 24.4219 22.92 25.4019 23.1ZM23.7516 48.15C22.9916 48.15 22.4516 47.75 22.1316 46.95C21.8316 46.15 21.6816 44.87 21.6816 43.11C21.6816 40.51 22.0516 38.04 22.7916 35.7C22.9716 35.12 23.2616 34.7 23.6616 34.44C24.0816 34.16 24.6616 34.02 25.4016 34.02C25.8016 34.02 26.0816 34.07 26.2416 34.17C26.4016 34.27 26.4816 34.46 26.4816 34.74C26.4816 35.06 26.3316 35.78 26.0316 36.9C25.8316 37.7 25.6716 38.4 25.5516 39C25.4316 39.6 25.3316 40.34 25.2516 41.22C25.9116 39.5 26.6516 38.1 27.4716 37.02C28.2916 35.94 29.0916 35.17 29.8716 34.71C30.6716 34.25 31.4016 34.02 32.0616 34.02C33.3616 34.02 34.0116 34.67 34.0116 35.97C34.0116 36.23 33.9216 36.86 33.7416 37.86C33.5816 38.66 33.5016 39.16 33.5016 39.36C33.5016 40.06 33.7516 40.41 34.2516 40.41C34.8116 40.41 35.5316 39.97 36.4116 39.09C36.6716 38.83 36.9416 38.7 37.2216 38.7C37.4816 38.7 37.6816 38.82 37.8216 39.06C37.9816 39.28 38.0616 39.58 38.0616 39.96C38.0616 40.7 37.8616 41.28 37.4616 41.7C36.9016 42.28 36.2416 42.78 35.4816 43.2C34.7416 43.6 33.9516 43.8 33.1116 43.8C32.0516 43.8 31.2416 43.53 30.6816 42.99C30.1416 42.45 29.8716 41.72 29.8716 40.8C29.8716 40.5 29.9016 40.2 29.9616 39.9C30.0016 39.5 30.0216 39.23 30.0216 39.09C30.0216 38.77 29.9116 38.61 29.6916 38.61C29.3916 38.61 28.9916 38.95 28.4916 39.63C28.0116 40.29 27.5316 41.17 27.0516 42.27C26.5716 43.37 26.1816 44.53 25.8816 45.75C25.6616 46.69 25.4016 47.33 25.1016 47.67C24.8216 47.99 24.3716 48.15 23.7516 48.15ZM38.964 48.15C37.724 48.15 36.734 47.7 35.994 46.8C35.254 45.9 34.884 44.72 34.884 43.26C34.884 41.66 35.254 40.15 35.994 38.73C36.734 37.29 37.714 36.14 38.934 35.28C40.174 34.4 41.484 33.96 42.864 33.96C43.304 33.96 43.594 34.05 43.734 34.23C43.894 34.39 44.024 34.69 44.124 35.13C44.544 35.05 44.984 35.01 45.444 35.01C46.424 35.01 46.914 35.36 46.914 36.06C46.914 36.48 46.764 37.48 46.464 39.06C46.004 41.36 45.774 42.96 45.774 43.86C45.774 44.16 45.844 44.4 45.984 44.58C46.144 44.76 46.344 44.85 46.584 44.85C46.964 44.85 47.424 44.61 47.964 44.13C48.504 43.63 49.234 42.83 50.154 41.73C50.394 41.45 50.664 41.31 50.964 41.31C51.224 41.31 51.424 41.43 51.564 41.67C51.724 41.91 51.804 42.24 51.804 42.66C51.804 43.46 51.614 44.08 51.234 44.52C50.414 45.54 49.544 46.4 48.624 47.1C47.704 47.8 46.814 48.15 45.954 48.15C45.294 48.15 44.684 47.93 44.124 47.49C43.584 47.03 43.174 46.41 42.894 45.63C41.854 47.31 40.544 48.15 38.964 48.15ZM40.044 45.12C40.484 45.12 40.904 44.86 41.304 44.34C41.704 43.82 41.994 43.13 42.174 42.27L43.284 36.75C42.444 36.77 41.664 37.09 40.944 37.71C40.244 38.31 39.684 39.11 39.264 40.11C38.844 41.11 38.634 42.17 38.634 43.29C38.634 43.91 38.754 44.37 38.994 44.67C39.254 44.97 39.604 45.12 40.044 45.12ZM64.5088 38.88C64.5688 38.86 64.6688 38.85 64.8088 38.85C65.1088 38.85 65.3388 38.95 65.4988 39.15C65.6588 39.35 65.7388 39.62 65.7388 39.96C65.7388 40.58 65.6188 41.07 65.3788 41.43C65.1388 41.77 64.7788 42.02 64.2988 42.18C63.3788 42.48 62.3988 42.63 61.3588 42.63C60.4788 42.63 59.6488 42.51 58.8688 42.27C58.2888 43.21 57.6488 44.18 56.9488 45.18C56.1488 46.32 55.4588 47.1 54.8788 47.52C54.2988 47.94 53.6388 48.15 52.8988 48.15C52.0788 48.15 51.4288 47.83 50.9488 47.19C50.4888 46.55 50.1988 45.54 50.0788 44.16C49.8388 41.36 49.7188 38.91 49.7188 36.81V35.76C49.7388 35.1 49.9188 34.64 50.2588 34.38C50.5988 34.12 51.1088 33.99 51.7888 33.99C52.3088 33.99 52.6888 34.11 52.9288 34.35C53.1888 34.57 53.3188 34.95 53.3188 35.49C53.3188 37.79 53.4588 40.78 53.7388 44.46C54.9388 42.68 55.8388 41.26 56.4388 40.2C56.1388 39.62 55.9888 38.93 55.9888 38.13C55.9888 37.45 56.1388 36.79 56.4388 36.15C56.7388 35.51 57.1488 34.99 57.6688 34.59C58.1888 34.19 58.7788 33.99 59.4388 33.99C60.0188 33.99 60.4888 34.2 60.8488 34.62C61.2088 35.02 61.3888 35.61 61.3888 36.39C61.3888 37.29 61.1488 38.32 60.6688 39.48C61.4288 39.44 62.4388 39.29 63.6988 39.03L64.5088 38.88ZM76.5153 41.31C76.7753 41.31 76.9753 41.43 77.1153 41.67C77.2753 41.91 77.3553 42.24 77.3553 42.66C77.3553 43.46 77.1653 44.08 76.7853 44.52C76.0453 45.42 74.9953 46.25 73.6353 47.01C72.2953 47.77 70.8553 48.15 69.3153 48.15C67.2153 48.15 65.5853 47.58 64.4253 46.44C63.2653 45.3 62.6853 43.74 62.6853 41.76C62.6853 40.38 62.9753 39.1 63.5553 37.92C64.1353 36.72 64.9353 35.77 65.9553 35.07C66.9953 34.37 68.1653 34.02 69.4653 34.02C70.6253 34.02 71.5553 34.37 72.2553 35.07C72.9553 35.75 73.3053 36.68 73.3053 37.86C73.3053 39.24 72.8053 40.43 71.8053 41.43C70.8253 42.41 69.1553 43.19 66.7953 43.77C67.2953 44.69 68.2453 45.15 69.6453 45.15C70.5453 45.15 71.5653 44.84 72.7053 44.22C73.8653 43.58 74.8653 42.75 75.7053 41.73C75.9453 41.45 76.2153 41.31 76.5153 41.31ZM68.9553 36.96C68.2153 36.96 67.5853 37.39 67.0653 38.25C66.5653 39.11 66.3153 40.15 66.3153 41.37V41.43C67.4953 41.15 68.4253 40.73 69.1053 40.17C69.7853 39.61 70.1253 38.96 70.1253 38.22C70.1253 37.84 70.0153 37.54 69.7953 37.32C69.5953 37.08 69.3153 36.96 68.9553 36.96ZM83.5827 43.77C83.8027 43.57 84.0227 43.47 84.2427 43.47C84.4827 43.47 84.6727 43.61 84.8127 43.89C84.9727 44.15 85.0527 44.47 85.0527 44.85C85.0527 45.69 84.7527 46.36 84.1527 46.86C83.1127 47.72 81.9327 48.15 80.6127 48.15C78.7127 48.15 77.3227 47.36 76.4427 45.78C75.5627 44.18 75.1227 42.1 75.1227 39.54C75.1227 37.1 75.4327 34.32 76.0527 31.2C76.6927 28.08 77.6227 25.4 78.8427 23.16C80.0827 20.92 81.5527 19.8 83.2527 19.8C84.2127 19.8 84.9627 20.25 85.5027 21.15C86.0627 22.03 86.3427 23.3 86.3427 24.96C86.3427 27.34 85.6827 30.1 84.3627 33.24C83.0627 36.38 81.2827 39.48 79.0227 42.54C79.1627 43.36 79.4127 43.95 79.7727 44.31C80.1327 44.67 80.6227 44.85 81.2427 44.85C81.5827 44.85 81.9627 44.75 82.3827 44.55C82.8227 44.35 83.2227 44.09 83.5827 43.77ZM82.5927 22.77C82.1327 22.77 81.6127 23.6 81.0327 25.26C80.4527 26.92 79.9427 28.98 79.5027 31.44C79.0627 33.9 78.8227 36.26 78.7827 38.52C80.2027 36.18 81.3327 33.84 82.1727 31.5C83.0127 29.14 83.4327 26.99 83.4327 25.05C83.4327 23.53 83.1527 22.77 82.5927 22.77ZM107.277 41.31C107.537 41.31 107.737 41.43 107.877 41.67C108.037 41.91 108.117 42.24 108.117 42.66C108.117 43.46 107.927 44.08 107.547 44.52C106.687 45.58 105.747 46.45 104.727 47.13C103.707 47.81 102.537 48.15 101.217 48.15C97.137 48.15 95.097 45.28 95.097 39.54C95.097 38.66 95.127 37.77 95.187 36.87H94.017C93.417 36.87 93.007 36.76 92.787 36.54C92.587 36.32 92.487 35.97 92.487 35.49C92.487 34.37 92.937 33.81 93.837 33.81H95.547C95.887 31.61 96.407 29.6 97.107 27.78C97.807 25.96 98.647 24.51 99.627 23.43C100.627 22.35 101.697 21.81 102.837 21.81C103.677 21.81 104.337 22.18 104.817 22.92C105.297 23.66 105.537 24.59 105.537 25.71C105.537 28.81 104.237 31.51 101.637 33.81H104.997C105.317 33.81 105.547 33.88 105.687 34.02C105.827 34.16 105.897 34.42 105.897 34.8C105.897 36.18 104.767 36.87 102.507 36.87H98.847C98.807 37.87 98.787 38.65 98.787 39.21C98.787 41.29 99.027 42.75 99.507 43.59C100.007 44.43 100.787 44.85 101.847 44.85C102.707 44.85 103.467 44.59 104.127 44.07C104.787 43.55 105.567 42.77 106.467 41.73C106.707 41.45 106.977 41.31 107.277 41.31ZM102.027 24.69C101.727 24.69 101.387 25.07 101.007 25.83C100.647 26.57 100.297 27.61 99.957 28.95C99.637 30.27 99.367 31.74 99.147 33.36C100.327 32.34 101.207 31.2 101.787 29.94C102.387 28.66 102.687 27.5 102.687 26.46C102.687 25.28 102.467 24.69 102.027 24.69ZM110.744 48.15C109.564 48.15 108.554 47.86 107.714 47.28C106.894 46.68 106.274 45.9 105.854 44.94C105.434 43.98 105.224 42.95 105.224 41.85C105.224 40.33 105.504 38.98 106.064 37.8C106.644 36.6 107.424 35.67 108.404 35.01C109.384 34.33 110.484 33.99 111.704 33.99C112.884 33.99 113.894 34.29 114.734 34.89C115.574 35.47 116.204 36.24 116.624 37.2C117.044 38.16 117.254 39.19 117.254 40.29C117.254 41.81 116.964 43.17 116.384 44.37C115.804 45.55 115.014 46.48 114.014 47.16C113.034 47.82 111.944 48.15 110.744 48.15ZM111.074 44.91C111.754 44.91 112.324 44.54 112.784 43.8C113.264 43.06 113.504 41.98 113.504 40.56C113.504 39.46 113.304 38.63 112.904 38.07C112.504 37.51 112.024 37.23 111.464 37.23C110.744 37.23 110.144 37.6 109.664 38.34C109.204 39.06 108.974 40.14 108.974 41.58C108.974 42.72 109.174 43.56 109.574 44.1C109.974 44.64 110.474 44.91 111.074 44.91Z" fill="white"/>
<path d="M187.55 45.8687C187.55 47.2785 187.389 48.7486 187.067 50.2792C186.14 54.2264 184.147 57.3278 181.086 59.5833C178.024 61.7986 174.359 62.9062 170.09 62.9062C165.699 62.9062 161.954 61.7986 158.852 59.5833C155.791 57.3681 153.838 54.2868 152.992 50.3396C152.67 49.0507 152.508 47.5604 152.508 45.8687V18.5604L159.879 18.5V45.2042C159.879 46.6542 160 47.8826 160.242 48.8896C160.806 51.0243 161.994 52.7562 163.806 54.0854C165.659 55.4146 167.754 56.0792 170.09 56.0792C172.426 56.0792 174.5 55.3542 176.313 53.9042C178.165 52.4542 179.354 50.6417 179.877 48.4667C180.079 47.6208 180.179 46.5333 180.179 45.2042V18.5H187.55V45.8687ZM220.84 62H192.988V60.9729L210.267 35.7792H194.74V29.375H221.625V30.4021L204.406 55.5958H220.84V62ZM243.76 28.4687C246.781 28.4687 249.439 29.2139 251.735 30.7042C254.031 32.1944 255.803 34.2486 257.052 36.8667C258.301 39.4444 258.925 42.3847 258.925 45.6875C258.925 48.95 258.301 51.8903 257.052 54.5083C255.844 57.1264 254.092 59.1806 251.796 60.6708C249.54 62.1611 246.942 62.9062 244.002 62.9062C240.337 62.9062 237.255 61.8187 234.758 59.6437V62H228.294V18.5H235.604V31.0062C237.86 29.3146 240.578 28.4687 243.76 28.4687ZM242.914 56.3812C245.613 56.3812 247.667 55.3944 249.077 53.4208C250.487 51.4472 251.192 48.8694 251.192 45.6875C251.192 42.5458 250.467 39.9882 249.017 38.0146C247.567 36.0007 245.452 34.9937 242.673 34.9937C240.014 34.9937 238.021 35.9604 236.692 37.8937C235.403 39.7868 234.758 42.3847 234.758 45.6875C234.758 49.0306 235.403 51.6486 236.692 53.5417C238.021 55.4347 240.095 56.3812 242.914 56.3812ZM271.605 47.7417C271.887 50.3597 272.733 52.4139 274.142 53.9042C275.592 55.3542 277.546 56.0792 280.003 56.0792C281.735 56.0792 283.245 55.6965 284.534 54.9312C285.863 54.1257 286.89 52.9576 287.615 51.4271L294.805 53.6021C293.637 56.4618 291.724 58.7375 289.065 60.4292C286.407 62.0806 283.507 62.9062 280.365 62.9062C277.062 62.9062 274.142 62.2014 271.605 60.7917C269.108 59.3417 267.174 57.3479 265.805 54.8104C264.435 52.2326 263.751 49.3125 263.751 46.05C263.751 42.5861 264.415 39.525 265.744 36.8667C267.114 34.2083 269.007 32.1542 271.424 30.7042C273.881 29.2139 276.74 28.4687 280.003 28.4687C284.836 28.4687 288.582 30.0396 291.24 33.1812C293.899 36.2826 295.228 40.4312 295.228 45.6271C295.228 46.5535 295.208 47.2583 295.167 47.7417H271.605ZM280.003 34.8125C277.626 34.8125 275.753 35.4569 274.384 36.7458C273.055 37.9944 272.189 39.7465 271.786 42.0021H287.796C287.474 39.5854 286.709 37.7931 285.501 36.625C284.292 35.4167 282.46 34.8125 280.003 34.8125ZM301.987 18.5H309.358V45.0833L321.26 29.375H330.383L317.695 45.6875L331.47 62H321.804L309.358 46.2917V62H301.926L301.987 18.5ZM342.349 17.6542V24.3H335.099V17.6542H342.349ZM342.349 29.375V62H335.099V29.375H342.349ZM369.797 39.4042C369.636 37.9944 368.931 36.8667 367.682 36.0208C366.474 35.175 364.984 34.7521 363.212 34.7521C361.681 34.7521 360.412 35.034 359.405 35.5979C358.439 36.1618 357.955 36.9271 357.955 37.8937C357.955 38.7396 358.237 39.4243 358.801 39.9479C359.405 40.4312 360.332 40.8743 361.58 41.2771C362.386 41.5187 363.614 41.8611 365.266 42.3042L367.38 42.8479C370.844 43.734 373.382 44.9021 374.993 46.3521C376.644 47.8021 377.47 49.8361 377.47 52.4542C377.47 55.7167 376.241 58.2743 373.785 60.1271C371.368 61.9799 368.246 62.9062 364.42 62.9062C360.312 62.9062 356.969 62.0604 354.391 60.3687C351.813 58.6368 350.222 56.0187 349.618 52.5146L357.049 51.3667C357.412 53.0583 358.278 54.3472 359.647 55.2333C361.016 56.1194 362.668 56.5625 364.601 56.5625C366.172 56.5625 367.461 56.2403 368.468 55.5958C369.515 54.9514 370.039 54.025 370.039 52.8167C370.039 51.8097 369.676 51.0444 368.951 50.5208C368.226 49.9569 367.139 49.4736 365.689 49.0708L363.574 48.4667C361.037 47.7819 359.164 47.2583 357.955 46.8958C355.7 46.2514 353.928 45.2042 352.639 43.7542C351.35 42.3042 350.705 40.4715 350.705 38.2562C350.705 36.1618 351.289 34.3896 352.457 32.9396C353.625 31.4493 355.176 30.3417 357.11 29.6167C359.043 28.8514 361.157 28.4687 363.453 28.4687C367.159 28.4687 370.28 29.3146 372.818 31.0062C375.355 32.6576 376.825 35.0139 377.228 38.075L369.797 39.4042ZM393.714 48.2854C393.714 48.6076 393.714 49.2521 393.714 50.2187C393.714 51.1854 393.755 51.991 393.835 52.6354C393.956 53.2396 394.137 53.7431 394.379 54.1458C395.064 55.3139 396.252 55.9785 397.944 56.1396C398.226 56.1799 398.689 56.2 399.333 56.2C400.582 56.2 401.911 56.0993 403.321 55.8979V62C401.951 62.3625 400.26 62.5438 398.246 62.5438C396.796 62.5438 395.507 62.4431 394.379 62.2417C392.848 62 391.56 61.5771 390.512 60.9729C389.505 60.3285 388.599 59.3819 387.794 58.1333C387.23 57.2875 386.867 56.3611 386.706 55.3542C386.545 54.3069 386.464 53.0382 386.464 51.5479V48.6479V35.0542H380.544V29.375H386.464V20.3125H393.714V29.375H403.321V35.0542H393.714V48.2854ZM430.939 62V57.7104C429.489 59.5229 427.857 60.8521 426.045 61.6979C424.273 62.5035 422.017 62.9062 419.278 62.9062C416.016 62.9062 413.398 61.9799 411.424 60.1271C409.491 58.2743 408.524 55.8174 408.524 52.7562C408.524 48.4062 410.619 45.4056 414.807 43.7542C416.499 43.1097 418.352 42.6062 420.366 42.2437C422.38 41.841 424.937 41.4181 428.039 40.975L430.093 40.6729C429.932 38.7799 429.247 37.3903 428.039 36.5042C426.83 35.5778 425.32 35.1146 423.507 35.1146C421.816 35.1146 420.325 35.4972 419.037 36.2625C417.748 36.9875 416.821 38.1153 416.257 39.6458L409.672 37.5917C410.76 34.8931 412.512 32.6979 414.928 31.0062C417.385 29.3146 420.325 28.4687 423.749 28.4687C427.092 28.4687 429.851 29.1736 432.026 30.5833C434.241 31.9528 435.772 33.9667 436.618 36.625C437.061 38.1556 437.282 40.0687 437.282 42.3646V62H430.939ZM428.945 52.8167C429.71 51.4069 430.093 49.3528 430.093 46.6542C428.039 46.9361 426.206 47.2181 424.595 47.5C422.984 47.7819 421.514 48.1042 420.185 48.4667C418.735 48.9097 417.607 49.4937 416.801 50.2187C416.036 50.9035 415.653 51.8097 415.653 52.9375C415.653 54.1056 416.116 55.1125 417.043 55.9583C417.969 56.7639 419.258 57.1667 420.91 57.1667C422.601 57.1667 424.172 56.7639 425.622 55.9583C427.072 55.1528 428.18 54.1056 428.945 52.8167ZM471.093 31.7917C472.785 33.3222 473.872 35.2556 474.356 37.5917C474.839 39.9278 475.081 42.8076 475.081 46.2312V62H467.71V46.5333C467.71 41.9014 466.844 38.7799 465.112 37.1687C463.783 35.9201 462.071 35.2958 459.976 35.2958C458.083 35.2958 456.553 35.7993 455.385 36.8062C454.015 37.8535 453.149 39.3639 452.787 41.3375C452.545 42.5861 452.424 44.741 452.424 47.8021V62H445.114V29.375H451.579V33L452.243 32.2146C453.25 31.0465 454.499 30.1604 455.989 29.5562C457.479 28.9521 459.01 28.6097 460.581 28.5292C460.903 28.4889 461.386 28.4687 462.031 28.4687C465.736 28.4687 468.757 29.5764 471.093 31.7917Z" fill="white"/>
</svg>
